implTests/tests/mydump.vcd
$date 2022-04-17T16:00:08 $end
$version Generated by Clash 1.6.2 $end
$comment No comment $end
$timescale 1ps $end
$scope module logic $end
$var wire 8 ! s2 $end
$var wire 8 " s1 $end
$var wire 8 # result $end
$upscope $end
$enddefinitions $end
#0
$dumpvars
b00000000 !
b00000000 "
b00000000 #
$end
#1
b00000001 !
b00000001 "
b00000010 #
#2
b00000010 !
b00000010 "
b00000100 #
#3
b00000011 !
b00000011 "
b00000110 #
#4
b00000100 !
b00000100 "
b00001000 #
#5
b00000101 !
b00000101 "
b00001010 #
#6
b00000110 !
b00000110 "
b00001100 #
#7
b00000111 !
b00000111 "
b00001110 #
#8
b00001000 !
b00001000 "
b00010000 #
#9
b00001001 !
b00001001 "
b00010010 #
#10
b00001010 !
b00001010 "
b00010100 #
#11
b00001011 !
b00001011 "
b00010110 #
#12
b00001100 !
b00001100 "
b00011000 #
#13
b00001101 !
b00001101 "
b00011010 #
#14
b00001110 !
b00001110 "
b00011100 #
#15
b00001111 !
b00001111 "
b00011110 #
#16
b00010000 !
b00010000 "
b00100000 #
#17
b00010001 !
b00010001 "
b00100010 #
#18
b00010010 !
b00010010 "
b00100100 #
#19
b00010011 !
b00010011 "
b00100110 #
#20
b00010100 !
b00010100 "
b00101000 #
#21
b00010101 !
b00010101 "
b00101010 #
#22
b00010110 !
b00010110 "
b00101100 #
#23
b00010111 !
b00010111 "
b00101110 #
#24
b00011000 !
b00011000 "
b00110000 #
#25
b00011001 !
b00011001 "
b00110010 #
#26
b00011010 !
b00011010 "
b00110100 #
#27
b00011011 !
b00011011 "
b00110110 #
#28
b00011100 !
b00011100 "
b00111000 #
#29
b00011101 !
b00011101 "
b00111010 #
#30
b00011110 !
b00011110 "
b00111100 #
#31
b00011111 !
b00011111 "
b00111110 #
#32
b00100000 !
b00100000 "
b01000000 #
#33
b00100001 !
b00100001 "
b01000010 #
#34
b00100010 !
b00100010 "
b01000100 #
#35
b00100011 !
b00100011 "
b01000110 #
#36
b00100100 !
b00100100 "
b01001000 #
#37
b00100101 !
b00100101 "
b01001010 #
#38
b00100110 !
b00100110 "
b01001100 #
#39
b00100111 !
b00100111 "
b01001110 #
#40
b00101000 !
b00101000 "
b01010000 #
#41
b00101001 !
b00101001 "
b01010010 #
#42
b00101010 !
b00101010 "
b01010100 #
#43
b00101011 !
b00101011 "
b01010110 #
#44
b00101100 !
b00101100 "
b01011000 #
#45
b00101101 !
b00101101 "
b01011010 #
#46
b00101110 !
b00101110 "
b01011100 #
#47
b00101111 !
b00101111 "
b01011110 #
#48
b00110000 !
b00110000 "
b01100000 #
#49
b00110001 !
b00110001 "
b01100010 #
#50
b00110010 !
b00110010 "
b01100100 #
#51
b00110011 !
b00110011 "
b01100110 #
#52
b00110100 !
b00110100 "
b01101000 #
#53
b00110101 !
b00110101 "
b01101010 #
#54
b00110110 !
b00110110 "
b01101100 #
#55
b00110111 !
b00110111 "
b01101110 #
#56
b00111000 !
b00111000 "
b01110000 #
#57
b00111001 !
b00111001 "
b01110010 #
#58
b00111010 !
b00111010 "
b01110100 #
#59
b00111011 !
b00111011 "
b01110110 #
#60
b00111100 !
b00111100 "
b01111000 #
#61
b00111101 !
b00111101 "
b01111010 #
#62
b00111110 !
b00111110 "
b01111100 #
#63
b00111111 !
b00111111 "
b01111110 #
#64
b01000000 !
b01000000 "
b10000000 #
#65
b01000001 !
b01000001 "
b10000010 #
#66
b01000010 !
b01000010 "
b10000100 #
#67
b01000011 !
b01000011 "
b10000110 #
#68
b01000100 !
b01000100 "
b10001000 #
#69
b01000101 !
b01000101 "
b10001010 #
#70
b01000110 !
b01000110 "
b10001100 #
#71
b01000111 !
b01000111 "
b10001110 #
#72
b01001000 !
b01001000 "
b10010000 #
#73
b01001001 !
b01001001 "
b10010010 #
#74
b01001010 !
b01001010 "
b10010100 #
#75
b01001011 !
b01001011 "
b10010110 #
#76
b01001100 !
b01001100 "
b10011000 #
#77
b01001101 !
b01001101 "
b10011010 #
#78
b01001110 !
b01001110 "
b10011100 #
#79
b01001111 !
b01001111 "
b10011110 #
#80
b01010000 !
b01010000 "
b10100000 #
#81
b01010001 !
b01010001 "
b10100010 #
#82
b01010010 !
b01010010 "
b10100100 #
#83
b01010011 !
b01010011 "
b10100110 #
#84
b01010100 !
b01010100 "
b10101000 #
#85
b01010101 !
b01010101 "
b10101010 #
#86
b01010110 !
b01010110 "
b10101100 #
#87
b01010111 !
b01010111 "
b10101110 #
#88
b01011000 !
b01011000 "
b10110000 #
#89
b01011001 !
b01011001 "
b10110010 #
#90
b01011010 !
b01011010 "
b10110100 #
#91
b01011011 !
b01011011 "
b10110110 #
#92
b01011100 !
b01011100 "
b10111000 #
#93
b01011101 !
b01011101 "
b10111010 #
#94
b01011110 !
b01011110 "
b10111100 #
#95
b01011111 !
b01011111 "
b10111110 #
#96
b01100000 !
b01100000 "
b11000000 #
#97
b01100001 !
b01100001 "
b11000010 #
#98
b01100010 !
b01100010 "
b11000100 #
#99
b01100011 !
b01100011 "
b11000110 #
#100
b01100100 !
b01100100 "
b11001000 #
#101
b01100101 !
b01100101 "
b11001010 #
#102
b01100110 !
b01100110 "
b11001100 #
#103
b01100111 !
b01100111 "
b11001110 #
#104
b01101000 !
b01101000 "
b11010000 #
#105
b01101001 !
b01101001 "
b11010010 #
#106
b01101010 !
b01101010 "
b11010100 #
#107
b01101011 !
b01101011 "
b11010110 #
#108
b01101100 !
b01101100 "
b11011000 #
#109
b01101101 !
b01101101 "
b11011010 #
#110
b01101110 !
b01101110 "
b11011100 #
#111
b01101111 !
b01101111 "
b11011110 #
#112
b01110000 !
b01110000 "
b11100000 #
#113
b01110001 !
b01110001 "
b11100010 #
#114
b01110010 !
b01110010 "
b11100100 #
#115
b01110011 !
b01110011 "
b11100110 #
#116
b01110100 !
b01110100 "
b11101000 #
#117
b01110101 !
b01110101 "
b11101010 #
#118
b01110110 !
b01110110 "
b11101100 #
#119
b01110111 !
b01110111 "
b11101110 #
#120
b01111000 !
b01111000 "
b11110000 #
#121
b01111001 !
b01111001 "
b11110010 #
#122
b01111010 !
b01111010 "
b11110100 #
#123
b01111011 !
b01111011 "
b11110110 #
#124
b01111100 !
b01111100 "
b11111000 #
#125
b01111101 !
b01111101 "
b11111010 #
#126
b01111110 !
b01111110 "
b11111100 #
#127
b01111111 !
b01111111 "
b11111110 #
#128
b10000000 !
b10000000 "
b00000000 #
#129
b10000001 !
b10000001 "
b00000010 #
#130
b10000010 !
b10000010 "
b00000100 #
#131
b10000011 !
b10000011 "
b00000110 #
#132
b10000100 !
b10000100 "
b00001000 #
#133
b10000101 !
b10000101 "
b00001010 #
#134
b10000110 !
b10000110 "
b00001100 #
#135
b10000111 !
b10000111 "
b00001110 #
#136
b10001000 !
b10001000 "
b00010000 #
#137
b10001001 !
b10001001 "
b00010010 #
#138
b10001010 !
b10001010 "
b00010100 #
#139
b10001011 !
b10001011 "
b00010110 #
#140
b10001100 !
b10001100 "
b00011000 #
#141
b10001101 !
b10001101 "
b00011010 #
#142
b10001110 !
b10001110 "
b00011100 #
#143
b10001111 !
b10001111 "
b00011110 #
#144
b10010000 !
b10010000 "
b00100000 #
#145
b10010001 !
b10010001 "
b00100010 #
#146
b10010010 !
b10010010 "
b00100100 #
#147
b10010011 !
b10010011 "
b00100110 #
#148
b10010100 !
b10010100 "
b00101000 #
#149
b10010101 !
b10010101 "
b00101010 #
#150
b10010110 !
b10010110 "
b00101100 #
#151
b10010111 !
b10010111 "
b00101110 #
#152
b10011000 !
b10011000 "
b00110000 #
#153
b10011001 !
b10011001 "
b00110010 #
#154
b10011010 !
b10011010 "
b00110100 #
#155
b10011011 !
b10011011 "
b00110110 #
#156
b10011100 !
b10011100 "
b00111000 #
#157
b10011101 !
b10011101 "
b00111010 #
#158
b10011110 !
b10011110 "
b00111100 #
#159
b10011111 !
b10011111 "
b00111110 #
#160
b10100000 !
b10100000 "
b01000000 #
#161
b10100001 !
b10100001 "
b01000010 #
#162
b10100010 !
b10100010 "
b01000100 #
#163
b10100011 !
b10100011 "
b01000110 #
#164
b10100100 !
b10100100 "
b01001000 #
#165
b10100101 !
b10100101 "
b01001010 #
#166
b10100110 !
b10100110 "
b01001100 #
#167
b10100111 !
b10100111 "
b01001110 #
#168
b10101000 !
b10101000 "
b01010000 #
#169
b10101001 !
b10101001 "
b01010010 #
#170
b10101010 !
b10101010 "
b01010100 #
#171
b10101011 !
b10101011 "
b01010110 #
#172
b10101100 !
b10101100 "
b01011000 #
#173
b10101101 !
b10101101 "
b01011010 #
#174
b10101110 !
b10101110 "
b01011100 #
#175
b10101111 !
b10101111 "
b01011110 #
#176
b10110000 !
b10110000 "
b01100000 #
#177
b10110001 !
b10110001 "
b01100010 #
#178
b10110010 !
b10110010 "
b01100100 #
#179
b10110011 !
b10110011 "
b01100110 #
#180
b10110100 !
b10110100 "
b01101000 #
#181
b10110101 !
b10110101 "
b01101010 #
#182
b10110110 !
b10110110 "
b01101100 #
#183
b10110111 !
b10110111 "
b01101110 #
#184
b10111000 !
b10111000 "
b01110000 #
#185
b10111001 !
b10111001 "
b01110010 #
#186
b10111010 !
b10111010 "
b01110100 #
#187
b10111011 !
b10111011 "
b01110110 #
#188
b10111100 !
b10111100 "
b01111000 #
#189
b10111101 !
b10111101 "
b01111010 #
#190
b10111110 !
b10111110 "
b01111100 #
#191
b10111111 !
b10111111 "
b01111110 #
#192
b11000000 !
b11000000 "
b10000000 #
#193
b11000001 !
b11000001 "
b10000010 #
#194
b11000010 !
b11000010 "
b10000100 #
#195
b11000011 !
b11000011 "
b10000110 #
#196
b11000100 !
b11000100 "
b10001000 #
#197
b11000101 !
b11000101 "
b10001010 #
#198
b11000110 !
b11000110 "
b10001100 #
