ClashProject/compileSpeicherTest.vcd
$date 2022-04-19T09:03:44 $end
$version Generated by Clash 1.6.2 $end
$comment No comment $end
$timescale 1ps $end
$scope module logic $end
$var wire 8 ! ReadAddress $end
$var wire 8 " Output $end
$var wire 8 # DramOutput $end
$upscope $end
$enddefinitions $end
#0
$dumpvars
b00000000 !
b00000000 "
b00000000 #
$end
#1
b00001010 "
b00001010 #
#102
b00000001 !
#103
b00001011 "
b00001011 #
#204
b00000010 !
#205
b00001100 "
b00001100 #
#306
b00000011 !
#307
b00001101 "
b00001101 #
#408
b00000100 !
#409
b00001110 "
b00001110 #
#510
b00000101 !
#511
b00001111 "
b00001111 #
#612
b00000000 !
#613
b00001010 "
b00001010 #
#714
b00000001 !
#715
b00001011 "
b00001011 #
#816
b00000010 !
#817
b00001100 "
b00001100 #
#918
b00000011 !
#919
b00001101 "
b00001101 #
